<?xml version="1.0" encoding="UTF-8"?>
<session version="1.0">
<refactoring accessors="true" comment="Delete element from project &apos;PagePress&apos;&#x0A;- Original project: &apos;PagePress&apos;&#x0A;- Original element: &apos;PagePress&apos;" description="Delete element" element1="PagePress" elements="0" flags="589830" id="org.eclipse.jdt.ui.delete" resources="1" stamp="1359856776623" subPackages="false" version="1.0"/>
</session>